{
  "web": {
    "client_id": "889072860592-008b46525mha8kqbuhqma479ll7ovuvc.apps.googleusercontent.com",
    "project_id": "supply-chain-349107",
    "auth_uri": "https://accounts.google.com/o/oauth2/auth",
    "token_uri": "https://oauth2.googleapis.com/token",
    "auth_provider_x509_cert_url": "https://www.googleapis.com/oauth2/v1/certs",
    "client_secret": "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",
    "javascript_origins": [
      "http://localhost:3000",
      "https://wishto.work",
      "https://www.wishto.work"
    ]
  }
}
